{
  "project_info": {
    "project_number": "112631623115",
    "firebase_url": "https://hoag-health-together.firebaseio.com",
    "project_id": "hoag-health-together",
    "storage_bucket": "hoag-health-together.appspot.com"
  },
  "client": [
    {
      "client_info": {
        "mobilesdk_app_id": "1:112631623115:android:ae04e51c97152af2659a4e",
        "android_client_info": {
          "package_name": "com.hoag.healthytogether"
        }
      },
      "oauth_client": [
        {
          "client_id": "112631623115-sb1hjlr9uvce4v0ejqiau847p3rcutkm.apps.googleusercontent.com",
          "client_type": 3
        }
      ],
      "api_key": [
        {
          "current_key": "AIzaSyDq9Q_0dcuB4B7PGPaa-kOdg_Bpp54bC7c"
        }
      ],
      "services": {
        "appinvite_service": {
          "other_platform_oauth_client": [
            {
              "client_id": "112631623115-sb1hjlr9uvce4v0ejqiau847p3rcutkm.apps.googleusercontent.com",
              "client_type": 3
            },
            {
              "client_id": "112631623115-87274an0vd1272ajaj5fgo4ul74nm8b0.apps.googleusercontent.com",
              "client_type": 2,
              "ios_info": {
                "bundle_id": "com.hoag.healthytogether",
                "app_store_id": "1506019041"
              }
            }
          ]
        }
      }
    }
  ],
  "configuration_version": "1"
}